4 prac-day-four – First peer-reviewed hand-in
…
4  prac-day-four

4.1 Display the flights dataset in an alternative format to simply printing it (i.e. running flights).

Attaching package: 'dplyr'

The following objects are masked from 'package:stats':

    filter, lag

The following objects are masked from 'package:base':

    intersect, setdiff, setequal, union

# A tibble: 336,776 × 19
    year month   day dep_time sched_dep_time dep_delay arr_time sched_arr_time
   <int> <int> <int>    <int>          <int>     <dbl>    <int>          <int>
 1  2013     1     1      517            515         2      830            819
 2  2013     1     1      533            529         4      850            830
 3  2013     1     1      542            540         2      923            850
 4  2013     1     1      544            545        -1     1004           1022
 5  2013     1     1      554            600        -6      812            837
 6  2013     1     1      554            558        -4      740            728
 7  2013     1     1      555            600        -5      913            854
 8  2013     1     1      557            600        -3      709            723
 9  2013     1     1      557            600        -3      838            846
10  2013     1     1      558            600        -2      753            745
# ℹ 336,766 more rows
# ℹ 11 more variables: arr_delay <dbl>, carrier <chr>, flight <int>,
#   tailnum <chr>, origin <chr>, dest <chr>, air_time <dbl>, distance <dbl>,
#   hour <dbl>, minute <dbl>, time_hour <dttm>
…
4.3 Explain why the standard deviation is NA for one carrier, and why it is 0 for others. Demonstrate your answer using code.

For carrier ‘OO’ there is only one value hence sd is NA.

# A tibble: 1 × 2
  carrier distance
  <chr>      <dbl>
1 OO           733

For carrier ‘F9’ and other carriers with sd 0 have the same distance values hence sd is 0.

# A tibble: 59 × 2
   carrier distance
   <chr>      <dbl>
 1 F9          1620
 2 F9          1620
 3 F9          1620
 4 F9          1620
 5 F9          1620
 6 F9          1620
 7 F9          1620
 8 F9          1620
 9 F9          1620
10 F9          1620
# ℹ 49 more rows
…
4.5 Calculate the proportion of flights that were delayed (dep_delay greater than 0) but arrived on or before time (arr_delay less than or equal to 0).

[1] 0.1052391

4.6 Using the airlines and flights datasets, do the following, showing the output from each step:

Identify routes that more than one airline flies

# A tibble: 128 × 3
   origin dest  airlines_count
   <chr>  <chr>          <int>
 1 EWR    ATL                4
 2 EWR    AUS                2
 3 EWR    BDL                2
 4 EWR    BNA                2
 5 EWR    BOS                3
 6 EWR    BWI                2
 7 EWR    CHS                2
 8 EWR    CLE                2
 9 EWR    CLT                3
10 EWR    CVG                2
# ℹ 118 more rows

For each such route, calculate the average arrival delay for each airline (exclude NAs). Find the names of these airlines.

# A tibble: 343 × 4
   origin dest  carrier avg_arr_delay
   <chr>  <chr> <chr>           <dbl>
 1 EWR    ATL   9E              -6.25
 2 EWR    ATL   DL              10.0 
 3 EWR    ATL   EV              19.5 
 4 EWR    ATL   UA              10.5 
 5 EWR    AUS   UA               4.28
 6 EWR    AUS   WN             -11.2 
 7 EWR    BDL   EV               6.78
 8 EWR    BDL   UA              22.6 
 9 EWR    BNA   EV              17.7 
10 EWR    BNA   WN              -2.13
# ℹ 333 more rows

For each such route, identify the airline with the worst and best average arrival delay.

# A tibble: 128 × 7
   origin dest  best_airline best_delay worst_airline worst_delay
   <chr>  <chr> <chr>             <dbl> <chr>               <dbl>
 1 EWR    ATL   9E               -6.25  EV                  19.5 
 2 EWR    AUS   WN              -11.2   UA                   4.28
 3 EWR    BDL   EV                6.78  UA                  22.6 
 4 EWR    BNA   WN               -2.13  EV                  17.7 
 5 EWR    BOS   EV               -4.01  B6                   6.87
 6 EWR    BWI   WN                5.95  EV                  20.1 
 7 EWR    CHS   UA              -14     EV                  16.2 
 8 EWR    CLE   EV               -3.71  UA                   5.97
 9 EWR    CLT   US                0.920 EV                  20.5 
10 EWR    CVG   9E                1.40  EV                  21.2 
# ℹ 118 more rows
# ℹ 1 more variable: delay_difference <dbl>
…
